%YAML 1.1
%TAG !u! tag:unity3d.com,2011:
--- !u!114 &11400000
MonoBehaviour:
  m_ObjectHideFlags: 0
  m_CorrespondingSourceObject: {fileID: 0}
  m_PrefabInstance: {fileID: 0}
  m_PrefabAsset: {fileID: 0}
  m_GameObject: {fileID: 0}
  m_Enabled: 1
  m_EditorHideFlags: 0
  m_Script: {fileID: 11500000, guid: d06d69d2f373f0e499f20ab2e8ee3fd1, type: 3}
  m_Name: New Management People
  m_EditorClassIdentifier: 
  peopleInHome: 8
  peopleInFarm: 0
  peopleQuarantine: 0
